<svg xmlns="http://www.w3.org/2000/svg" id="logo" viewBox="0 0 278.9 84.8">
  <style>
    .st0{fill:#e42518}.st1{fill:transparent}.st2{fill:#010202}
  </style>
  <g id="titleLogo">
    <path d="M43.4 49c0-1.6-2.5-1.5-2.5-1.5v3c-.1 0 2.5.2 2.5-1.5z" class="st0"/>
    <path d="M17.7 67.3h33.1V35.2H17.7v32.1zm16.2-22.7h9.9s4.7.4 5 3.9c.1 1.7-2.1 3-2.1 3l2 3.9H50v2.8h-5.3l-2.4-5.7h-1.5v2.8h1.3v2.9h-8v-2.8h1.3v-7.7h-1.5v-3.1zM20 55.4h1.3v-7.7H20v-3.1h12.6v4.2h-2.9v-1.3h-3v2.2h2.5v2.9h-2.5v2.7h1.5v2.9H20v-2.8zM51.7 67.3h31.9V35.2H51.7v32.1zM68 55.4h1.1v-8H68v-2.8h5.4l5.3 6.7v-3.8h-1.2v-2.9h5.4v2.8h-1v10.8h-4.5l-5-7.2v4.3h1.2v2.9H68v-2.8zm-15.4 0h.6l2.6-7.9h-1.4v-2.9h10.3v2.9h-1.5l2.3 7.9H67v2.8h-7.4v-2.8h1.3l-.3-1.5H57l-.3 1.5H58v2.8h-5.4v-2.8z" class="st0"/>
    <path d="M58.9 47.7l-1.4 3.9h2.8zM84.5 35.2v32.1h32.6V35.2H84.5zm17.2 23h-7.5v-2.9h1.3L92 51.8v3.6h1.1v2.9h-8v-2.9h1.5v-7.9h-1.5v-2.8h8v2.6h-1.3v3.3l3.3-3.3h-1v-2.6h6.4v2.6h-1L96 51.1l4.1 4.1h1.5v3zm13.3-9.4h-3.1v-1.6h-2.8V50h2.3v2.6H109v2.6h2.9v-1.6h3.1v4.7h-12.6v-3.1h1.6v-8h-1.6v-2.6H115v4.2z" class="st0"/>
    <path fill="transparent" d="M28.2 55.4h-1.5v-2.7h2.5v-3h-2.5v-2.2h3v1.3h2.9v-4.2H20v3.1h1.3v7.7H20v2.8h8.2zM35.4 55.4h-1.3v2.8h8v-2.9h-1.3v-2.8h1.5l2.4 5.7H50v-2.8h-1.4l-2-3.9s2.3-1.3 2.1-3c-.3-3.5-5-3.9-5-3.9h-9.9v3.1h1.5v7.7zm5.4-7.9s2.5-.1 2.5 1.5-2.5 1.5-2.5 1.5v-3zM58 55.4h-1.3l.3-1.5h3.5l.3 1.5h-1.3v2.8H67v-2.8h-1.5l-2.3-7.9h1.5v-2.9H54.4v2.9h1.4l-2.6 7.9h-.6v2.9H58v-2.9zm.9-7.7l1.4 3.8h-2.8l1.4-3.8zM73.7 55.4h-1.2v-4.3l5 7.1h4.4V47.5h1v-2.9h-5.4v2.9h1.2v3.8l-5.3-6.7H68v2.9h1.1v7.9H68v2.8h5.7zM96 51.1l3.7-3.9h.9v-2.6h-6.4v2.6h1l-3.3 3.4v-3.4h1.3v-2.6h-8v2.9h1.5v7.9h-1.5v2.8h8v-2.8H92v-3.6l3.4 3.6h-1.2v2.8h7.5v-3h-1.5zM102.4 47.2h1.6v8h-1.6v3H115v-4.6h-3.1v1.6h-2.8v-2.6h2.4V50h-2.4v-2.8h2.8v1.6h3.1v-4.2h-12.6z" class="st1"/>
  </g>
  <g id="subTitleLogo">
    <path d="M134.4 43.3c-.2.1-.3.2-.3.3v.2c0 .1 0 .1.1.2l-.2 9.1c0 .2 0 .7.1 1.5-.1 0-.2.1-.2.3 0 .1.1.2.2.3 0 .2 0 .5.1 1.1 0 .2 0 .4-.1.8l.1 2v.1c0 .5.1.9.1 1.2v.5c.1.2.2.2.3.2h.1c.1-.1.2-.2.3-.5v-.2c0-.1 0-.4-.2-.5 0-.4-.1-1.4-.2-3.2 0 0 0-.1.1-.5 0-.3-.1-.7-.1-1.1 0 0 .1-.1.5-.1.6-.3 1.1-.8 1.5-1.4.7-2.5 1.1-4.8 1.1-6.9 0-.4-.1-.8-.2-1.2-.4-1.5-1.5-2.2-3.1-2.2zm2.8 4.4c-.4 3.7-.8 5.8-1.4 6.1-.4.4-.7.6-1.1.6 0-.3 0-.7-.1-1.4l.2-9c.3.1.6.1.9.2 1 .7 1.5 1.5 1.5 2.3v1.2zM144.9 59.6v-1.9c-.2-3-1.1-4.8-2.5-5.2 1.2-1 1.8-2.6 1.8-4.7v-.5c0-.7-.3-1.7-.9-3.1-.4-.7-.9-1.2-1.6-1.4-.6-.1-.8-.2-.9-.3h-.2l-.3.2c.3 2 .5 5.4.6 9.9-.1 0-.2.1-.2.2v.2c.1.1.2.2.3.2v2.9c0 .5 0 1.4.1 2.8l-.1.4c.1.2.2.2.3.2.2 0 .3-.1.4-.2v-.1c0-.2 0-1.2-.1-2.8v-1.9V53c.4 0 .8.3 1.3.7.8 1.3 1.1 2.6 1.1 3.8v1.8c0 .3 0 .8.1 1.5l.2.2h.2l.2-.1c.2-.6.2-1 .2-1.3zm-3.1-7.5c-.2-3.5-.3-6.5-.5-8.8h.1c.3 0 .7.2 1.2.7.7 1.3 1.1 2.5 1.1 3.3v.7c-.1 1.8-.7 3.2-1.9 4.1zM151.4 43.6c-.2 0-.7 0-1.4.1-.4 0-.8-.1-1.1-.2-.2.1-.2.2-.2.3.2.4.3 1.4.3 3v.2c-.4 7-.7 11.2-.7 12.6v.9c0 .6.4.7.6.7h.2l1.6-.2h.5c.2-.1.2-.2.2-.3v-.1c-.1-.2-.2-.2-.3-.2h-.1l-2 .2h-.1v-.9c0-1.2.1-3.4.3-6.6.8 0 1.5.1 2 .1.2-.1.3-.2.3-.3v-.1l-.2-.2c-1.6-.1-2-.2-2-.3 0-.6.1-2.3.3-5.1 0-1.1 0-2-.1-2.7h.5c.7 0 1.2-.1 1.4-.1 0 0 .2-.1.2-.2V44l-.2-.4zM160.7 60.2v-1.4V57v-.2c0-.3-.1-.5-.1-.6 0-1.6 0-2.5.1-2.8 0-.8-.1-2.5-.1-5.1 0-4.9-.4-4.9-.5-4.9h-.1c-.2.1-.4.5-.4 1.2-.5 3.1-.7 4.8-.8 5.3-.3-1.1-.6-2.1-1-3.1-1.7-3.5-1.8-3.5-1.9-3.5h-.2l-.2.1c.3 2.9.6 6.4.8 10.4 0 1-.1 1.9-.1 2.6v2.2c0 .4 0 1-.1 1.9 0 .2.1.4.3.4h.2l.2-.1c0-1.2.1-2.1.1-2.8v-2.3c0-.5 0-1.1.1-1.8-.2-3.7-.4-6.7-.6-8.7.7 1.4 1.4 3 1.9 4.8.4 2.3.5 2.3.6 2.3h.2l.2-.1.3-2.6c.2-1.4.4-2.4.4-2.9v1.1c0 2 0 4 .1 5.9 0 .7-.1 1.6-.1 2.5 0 .4 0 .7.1.9l-.1.1.1.3V60c0 .2 0 .4-.1.7.1.2.3.3.5.3.1 0 .2-.1.3-.3-.1-.2-.1-.4-.1-.5zM165.5 43.9h-.1c-.2.1-.2.2-.2.3.1.6.1 1.3.1 2.1v1.4c-.2 2.2-.3 6.2-.3 12 0 1.3.1 1.4.3 1.4h.2c.2 0 .2-.2.3-.4-.1-.3-.1-.4-.1-.5v-3.3c0-1 0-2.4.1-4.2v-.4c.2-2.7.3-4.4.3-5.1v-.7c-.2-2.3-.4-2.6-.6-2.6zM174.2 49c0-.2 0-.5.1-.8v-.1h-.1V46.2v-1.1-.1c-.1-1.4-.2-1.5-.4-1.5h-.2l-.3.2c.1.5.1.9.1 1.4l-.1.1.1.3v1.2c0 .9 0 1.8-.1 2.8.3 5.4.4 8.6.4 9.9 0 .4-.2.7-.6.9-.4 0-.9-.6-1.3-3.3-.4-3.3-.8-7.7-1.1-13.1v-.3c0-.2-.1-.4-.3-.5h-.2l-.3.2c.3 5.6.7 9.8 1.1 12.7.3 3.3.9 4.9 1.9 4.9.8 0 1.3-.5 1.4-1.5 0-1-.1-4.4-.4-10.3V49zM183.8 60.2v-1.4V57v-.2c0-.3-.1-.5-.1-.6 0-1.6 0-2.5.1-2.8 0-.8-.1-2.5-.1-5.1 0-4.9-.4-4.9-.5-4.9h-.1c-.2.1-.4.5-.4 1.2-.5 3.1-.7 4.8-.8 5.3-.3-1.1-.6-2.1-1-3.1-1.7-3.5-1.8-3.5-1.9-3.5h-.2l-.2.1c.3 2.9.6 6.4.8 10.4 0 1-.1 1.9-.1 2.6v2.2c0 .4 0 1-.1 1.9 0 .2.1.4.3.4h.2l.2-.1c0-1.2.1-2.1.1-2.8v-2.3c0-.5 0-1.1.1-1.8-.2-3.7-.4-6.7-.6-8.7.7 1.4 1.4 3 1.9 4.8.4 2.3.5 2.3.6 2.3h.2l.2-.1.3-2.6c.2-1.4.4-2.4.4-2.9v1.1c0 2 0 4 .1 5.9 0 .7-.1 1.6-.1 2.5 0 .4 0 .7.1.9l-.1.1.1.3V60c0 .2 0 .4-.1.7.1.2.3.3.5.3.1 0 .2-.1.3-.3-.1-.2-.1-.4-.1-.5zM194.6 43.3c-.2.1-.3.2-.3.3v.2c0 .1 0 .1.1.2l-.2 9.1c0 .2 0 .7.1 1.5-.1 0-.2.1-.2.3 0 .1.1.2.2.3 0 .2 0 .5.1 1.1 0 .2 0 .4-.1.8l.1 2v.1c0 .5.1.9.1 1.2v.5c.1.2.2.2.3.2h.1c.1-.1.2-.2.3-.5v-.2c0-.1 0-.4-.2-.5 0-.4-.1-1.4-.2-3.2 0 0 0-.1.1-.5 0-.3-.1-.7-.1-1.1 0 0 .1-.1.5-.1.6-.3 1.1-.8 1.5-1.4.7-2.5 1.1-4.8 1.1-6.9 0-.4-.1-.8-.2-1.2-.5-1.5-1.6-2.2-3.1-2.2zm2.7 4.4c-.4 3.7-.8 5.8-1.4 6.1-.4.4-.7.6-1.1.6 0-.3 0-.7-.1-1.4l.2-9c.3.1.6.1.9.2 1 .7 1.5 1.5 1.5 2.3.1.2.1.6 0 1.2zM203.8 45.6c-.3-1-.8-1.6-1.3-1.8h-.1c-.4 0-.6.4-.8 1.2-.4 2.7-.6 5.2-.6 7.6 0 .5 0 .9.1 1.4 0 .7-.1 2.8-.4 6.4 0 .5.3.6.5.6.2-.1.3-.2.3-.3 0-.1 0-.2-.1-.3l.3-4.6v-1.9c0-.1.3-.3 2.6-.5h.3c.3 1.9.4 3 .5 3.3.3 2.4.5 3.7.6 4 .2 0 .4-.1.4-.2 0-1.1-.1-2.4-.4-3.8-.3-4.5-1-8.2-1.9-11.1zm-2 7.5v-1.3c0-2.9.2-5.3.7-7.1.1.1.3.3.5.8 1.1 3.8 1.7 6.2 1.7 7.2-1 0-2 .1-2.9.4zM214.3 59.6v-1.9c-.2-3-1.1-4.8-2.5-5.2 1.2-1 1.8-2.6 1.8-4.7v-.5c0-.7-.3-1.7-.9-3.1-.4-.7-.9-1.2-1.6-1.4-.6-.1-.8-.2-.9-.3h-.2l-.3.2c.3 2 .5 5.4.6 9.9-.1 0-.2.1-.2.2v.2c.1.1.2.2.3.2v2.9c0 .5 0 1.4.1 2.8l-.1.4c.1.2.2.2.3.2.2 0 .3-.1.4-.2v-.1c0-.2 0-1.2-.1-2.8v-1.9V53c.4 0 .8.3 1.3.7.8 1.3 1.1 2.6 1.1 3.8v1.8c0 .3 0 .8.1 1.5l.2.2h.2l.2-.1c.2-.6.2-1 .2-1.3zm-3.1-7.5c-.2-3.5-.3-6.5-.5-8.8h.1c.3 0 .7.2 1.2.7.7 1.3 1.1 2.5 1.1 3.3v.7c-.1 1.8-.7 3.2-1.9 4.1zM222.2 44.6c-.4.1-.9.1-1.3.1h-2.1c-.3 0-.7 0-1.4.1 0 0-.1 0-.4-.1-.2.1-.2.2-.2.2 0 .2.1.3.2.4l1.6-.1h.1c.1.8.1 1.8.1 2.8.3 6.5.5 10.1.5 10.8 0 .3-.1.4-.1.5.1.2.2.2.3.2h.2c.1 0 .2-.1.2-.2l-.1-.3v-.1s0-.1-.1-.2c0-2.2-.2-5.8-.5-10.8 0 0 0-.1.1-.4l-.1-2.3c0-.1.1-.1.1-.1h1.4c1.4 0 1.5-.1 1.5-.3v-.2zM229 45.3c0-.5 0-.9.1-1.2l-.3-.3h-.2l-.3.2c0 .2 0 .6-.1 1.3 0 .8.1 1.5.2 2 .5 4 .9 6.9 1.1 8.6 0-.1-.1-.3-.1-.4-.6-2.8-1.5-6.1-2.6-9.9-.2-1.2-.5-1.7-.8-1.7-.3 0-.3.5-.3.9 0 .1 0 .3.1.4v.1c0 .6.1 1 .1 1.1 0 .7-.1 2.6-.2 6 .1 3.1.2 5.8.4 7.9l-.1.5.3.2c.3 0 .4-.1.4-.2v-.1c-.2-2.4-.3-5.2-.4-8.3.1-3.3.2-5.3.2-6 .2.9.6 2 1 3.2.9 3.6 1.5 6 1.8 7.1.7 3.6.9 3.6 1 3.6.2 0 .4-.1.4-.3l-.5-5.1c-.8-5.6-1.2-8.7-1.2-9.6zM237.3 43.6c-.2 0-.7 0-1.4.1-.4 0-.8-.1-1.1-.2-.2.1-.2.2-.2.3.2.4.3 1.4.3 3v.2c-.4 7-.7 11.2-.7 12.6v.9c0 .6.4.7.6.7h.2l1.6-.2h.5c.2-.1.2-.2.2-.3v-.1c-.1-.2-.2-.2-.3-.2h-.2l-2 .2h-.1v-.9c0-1.2.1-3.4.3-6.6.8 0 1.5.1 2 .1.2-.1.3-.2.3-.3v-.1l-.2-.2c-1.6-.1-2-.2-2-.3 0-.6.1-2.3.3-5.1 0-1.1 0-2-.1-2.7h.5c.7 0 1.2-.1 1.4-.1 0 0 .2-.1.2-.2V44l-.1-.4zM245.4 60.9c0-.5-.1-1-.1-1.2v-1.9c-.2-3-1.1-4.8-2.5-5.2 1.2-1 1.8-2.6 1.8-4.7v-.5c0-.7-.3-1.7-.9-3.1-.4-.7-.9-1.2-1.6-1.4-.6-.1-.8-.2-.9-.3h-.2l-.3.2c.3 2 .5 5.4.6 9.9-.1 0-.2.1-.2.2v.2c.1.1.2.2.3.2v2.9c0 .5 0 1.4.1 2.8l-.1.4c.1.2.2.2.3.2.2 0 .3-.1.4-.2v-.1c0-.2 0-1.2-.1-2.8v-1.9-1.5c.4 0 .8.3 1.3.7.8 1.3 1.1 2.6 1.1 3.8v1.8c0 .3 0 .8.1 1.5l.5.1h.2l.2-.1zm-3.1-8.8c-.2-3.5-.3-6.5-.5-8.8h.1c.3 0 .7.2 1.2.7.7 1.3 1.1 2.5 1.1 3.3v.7c-.1 1.8-.7 3.2-1.9 4.1z"/>
  </g>
  <g id="strokeLogo">
    <path d="M131.8 17.7c-.4.1-.7.1-1.2.1h-.8c-1.2-.1-3.5-.2-6.7-.2-.7 0-.8.1-.8.2v.1c0 .1.2.2.3.2.2 0 .2-.1.3-.1h4.3c1.5.1 2.5.2 2.8.2h.4c1.4 0 1.6-.1 1.6-.3v-.1c-.1-.1-.1-.1-.2-.1zM145.6 17.7c-.4.1-.7.1-1.2.1h-.8c-1.2-.1-3.5-.2-6.7-.2-.7 0-.8.1-.8.2v.1c0 .1.2.2.3.2.2 0 .2-.1.3-.1h4.3c1.5.1 2.5.2 2.8.2h.4c1.4 0 1.6-.1 1.6-.3v-.1c0-.1-.1-.1-.2-.1zM158.7 17.7c-.4.1-.7.1-1.2.1h-.8c-1.2-.1-3.5-.2-6.7-.2-.7 0-.8.1-.8.2v.1c0 .1.2.2.3.2.2 0 .2-.1.3-.1h4.3c1.5.1 2.5.2 2.8.2h.4c1.4 0 1.6-.1 1.6-.3v-.1c-.1-.1-.1-.1-.2-.1zM172 17.7c-.4.1-.7.1-1.2.1h-.8c-1.2-.1-3.5-.2-6.7-.2-.7 0-.8.1-.8.2v.1c0 .1.2.2.3.2.2 0 .2-.1.3-.1h4.3c1.5.1 2.5.2 2.8.2h.4c1.4 0 1.6-.1 1.6-.3v-.1c0-.1-.1-.1-.2-.1zM184.7 17.7c-.4.1-.7.1-1.2.1h-.8c-1.2-.1-3.5-.2-6.7-.2-.7 0-.8.1-.8.2v.1c0 .1.2.2.3.2.2 0 .2-.1.3-.1h4.3c1.5.1 2.5.2 2.8.2h.4c1.4 0 1.6-.1 1.6-.3v-.1c-.1-.1-.1-.1-.2-.1zM196.9 17.7c-.4.1-.7.1-1.2.1h-.8c-1.2-.1-3.5-.2-6.7-.2-.7 0-.8.1-.8.2v.1c0 .1.2.2.3.2.2 0 .2-.1.3-.1h4.3c1.5.1 2.5.2 2.8.2h.4c1.4 0 1.6-.1 1.6-.3v-.1c-.1-.1-.2-.1-.2-.1zM210.9 17.7c-.4.1-.7.1-1.2.1h-.7c-1.2-.1-3.5-.2-6.7-.2-.7 0-.8.1-.8.2v.1c0 .1.2.2.3.2l.2-.1h4.3c1.5.1 2.5.2 2.8.2h.4c1.4 0 1.6-.1 1.6-.3v-.1c0-.1-.1-.1-.2-.1z" class="st2"/>
    <path d="M241.5 6c.2.3 1.6 2.6 2.2 2.3.3-.2-.1-.5-.1-1.1-.1-.6.1-1.3.1-2 .2-2.2-.3-5.4-2.3-5.2-1.4.2-1.9 1.7-1.5 3.1.3 1.1.8 1.9 1.6 2.9zM234.1 1.8c0-.4-.6-.2-.9-.1-1.9.3.9.7.9.1zM236.8 2.8c.3-.4-1.1-.9-1.2-.8-.4.2 1 1 1.2.8z"/>
    <path fill="none" stroke="#000" stroke-linecap="round" stroke-linejoin="round" stroke-width="0" d="M247.6 21.3"/>
    <path d="M277.8 31.3c-1.3-1.6-2.6-3.3-3.7-4.8-4.6-6-8.6-12-13.3-17.7-.2-.3-1-1.5-1.3-1.5-.5-.1-1 .8-1.3.6-.3-.2-.1-1.3-.2-1.7-.1-.5-.3-1.1-.4-1.3-.7-1.3-2.6-2.8-4.6-2.5-3.2.4-5.1 3.7-4.4 7.1.1.4.8 1.6 1.2 2 .3.3 1 .6 1 1 0 .5-.7 1.4-.9 1.8-.3.8-.6 1.7-1 2.5-.2.4-.8 2.2-1.2 2.3-.5.2-2.2-.7-2.6-.9-.6-.3-1.7-1.1-2.5-1-.6.1-1.3 1.1-1.9 1.8-1.6 1.8-2.6 3.2-4.2 5-.8 1-1 1.3.4 1.5 2.6.5 4.8.8 7.4 1.2.8.1 2.4.3 2.9.6.6.4 1 1.5 1.5 2.2.3.5.9 1.8 1.5 2.1.4.2 1.1.1 1.8.1 4.4.2 8.3.8 13.4 1 3.1.1 6.9.2 10.5.4 1.2 0 2.9.3 3.1-.3 0-.2-.8-1.1-1.2-1.5zM258 9c.2-.3 1.3-1.1 1.5-.9.4.4.6 1 1 1.5 1.1 1.2 2.2 2.7 3.2 4.1 1.3 1.9 2.7 3.8 4.1 5.6 2.9 3.8 5.6 7.6 8.3 11.2-3.4-2.2-7.6-5.1-11.1-7.7-.4-.3-1.4-.9-1.5-1.2-.3-.4-.2-1.2-.4-1.9-.2-.5-.7-1.1-.7-1.5 0-.3.3-.7.3-1-.1-.7-.9-1.1-1.5-1.5-1.1-.8-2-1.6-3.2-2.6-.4-.3-1.6-1-1.7-1.2 0-.3.8-.8 1.2-1.5.2-.3.4-1.2.5-1.4zm6 13.9c1 .5 1.9 1.3 2.8 2 1.8 1.2 3.8 2.7 5.6 4 1 .7 2 1.2 2.6 2-3.1-1-5.7-2.5-8.7-3.9-.4-.2-.9-.4-1.5-.7-.5-.2-1.3-.4-1.4-.7-.1-.4.3-.5.4-1.2.1-.5-.1-1.7.2-1.5zm-3.7-4.6c-.1-.2-.5-.4-.1-.6 1.1-.5 1.6 1.1 2 2.3.3 1.1.8 2.1.9 2.8.1.8 0 2.2-.4 2.4-.2.1-1.1-.4-1.3-.6-.7-1-.3-4.3-.7-5.7-.1-.1-.3-.4-.4-.6zm.1 6.2c-.2.1-.3-.3-.1-.4.1-.2.2.3.1.4zm-12.1-4.7c.2-.9.8-1.9 1.4-3 .5-1 1-2.1 1.4-3 .2-.4.5-1.2.4-1.5 0-.4-.9-1.2-1.2-1.7-.4-.6-.8-1.2-.9-2-.2-1.8.5-3.3 1.3-4.2.6-.6 1.2-1.2 2.4-1.2 1.3-.1 2.6.4 3.3 1.3 1 1.4 1.3 4.6.3 6-.2.3-.9.6-.9.9-.1.6 1.6 1.9 2 2.3.4.4.8.7 1.2.9.9.7 1.2 1 2.3 1.7.1.1.3.2.5.4-.1-.1.5.4.3.6-.1.1-1.1-.5-1.4-.5-.4 0-.7.1-.9.1-.5-.1-1.1-.5-1.7-.8-.1-.1-1.4-1-1.7-.8-.6.3.6 2.8.4 3.4 0 .1-.4.5-.5.5-.4 0-.4-.5-1-.6-.8-.1-1.4.8-.8 1.5.1.1.5.3.5.4 0 .2-.5 1-.7 1.1-.3.1-1.6-.5-1.7-.7-.3-.6-.1-3.4-.1-4.4 0-.3.2-1.1-.1-1.2-.4-.1-1 1.9-1.2 2.2-.3.5-.7 1.6-1 2.3-.3.5-1.1 1.8-1.6 1.6-.4.1-.5-.9-.3-1.6zm11.2 3.1c.2.3-.2.9-.3 1-.3.2-1.3-.3-1.4-.6-.1-.3.1-1 .1-1.7 0-.1.3-1 0-1.2-.3-.1-.5.4-.7 1-.1.5 0 1.4-.1 1.5-.3.2-1.1-.3-1.2-.4-.3-.1-.9-.3-.9-.5-.1-.3.5-1 .7-1.1.6-.8 1.8-2.3 2.6-2.5.2-.1.6-.1.9-.1.7.1.8 1.1.7 2.5 0 .4-.1 1.5-.4 1.6-.2.1-.9-.5-1.2-.2-.4.5 1.2.7 1.2.7zm-4.6-3.5c.5-.3.7.8.3.9-.4 0-.6-.7-.3-.9zm2.3-2.7c.1-.1 1.7.6 1.6.9-.1.5-1.4.3-1.6-.3v-.6zm-5.5 1.6c.2.1.3 2.1.1 2.4-.1.1-.8 0-.9-.3-.1-.4.8-1.9.8-1.9 0-.1-.1-.1 0-.2zm23.6 14.1c-11-2.4-21.8-4.7-33.3-6.4-1.3-.2-2.5-.4-4-.6-1-.2-1.6-.1-1-.8 1.8-2.2 3.8-4.7 5.7-6.5.1-.1 0-.1.1-.1.5-.2 1.1.4 2.4.9.7.3 2.3.6 2.4.9.1.2-.1 1.2 0 1.5l.1.5c-.2.2-1.1-.1-1.1.3s1.3.2 1.8.3c.2 0 2.4.7 2.5.4.2-.4-1.3-.6-1.4-.7-.1-.2.7-1 .9-1 .4-.1 1.4.5 1.8.7 5.2 2.2 10.5 3.9 15.6 6.3 2.7 1.3 5.4 2.8 8.3 3.9.5.2.9.3 1.3.5 1.2.6-1.8-.1-2.1-.1zM230.1 5.2c.3 0 .4-1 .6-1.4.2-.3 1.3-1.4.3-1.2-.4.1-1.8 2.8-.9 2.6zM238.3 4.9c.4-.2-.3-1.6-.6-1.4-.4.2.2 1.5.6 1.4z"/>
    <path d="M256.7 6.1c0-.7-.5-1.2-1.4-.9-.5.1-1 .6-1 1.2 0 1.6 2.5 1.2 2.4-.3zm-1.3-.3c1.3-.7.9 1.9-.1 1-.4-.3-.3-.8.1-1zM252 5.5c-1 .3-1.5 2.2-.3 2.5 2.2.5 2.3-3.1.3-2.5zm.2.5c.8-.1 1.1 1.2.3 1.5-.9.2-1.4-1.4-.3-1.5zM230.1 7.3c.6 0 .2-1.9-.3-1.5-.3.2-.1 1.5.3 1.5zM238.5 7.6c.3-.1.4-1.4-.1-1.1-.2.1-.4 1.2.1 1.1zM238.2 7.9c-.2.1-.9 1.2-.4 1.4.5.3 1.1-1.5.4-1.4z"/>
    <path d="M251.9 8.4c-.8.4.6.3.9.4.9.4 1 1.6.7 2.2-.1.2-1 .5-.9.7.4.6 1.6-.5 1.7-.7.5-1.4-.8-2.6-1.6-2.8-.4.1-.7.1-.8.2zM230.8 8.6c-.3.3 1 1.8 1.3 1.6.3-.2-1-2-1.3-1.6z"/>
    <path d="M254.6 10.6c.4.4.9 0 .9-.4 0-.2-.2-.4-.4-.7-.1-.5-.1-.8-.5-.6-.4.2 0 .3.1.6 0 .1-.2.2-.1.3 0 .3.3.3.3.4-.1.1-.4.2-.3.4zM270.3 16.7c.6-.2.1-1.2.1-1.9-.1-1.6 1.4-6.1-1.2-5.6-2.2.4-.9 4.1-.3 5.4.3.8 1.1 2.2 1.4 2.1zM236.5 11.4c.5.2 1.2-1.2.3-.9-.2.1-.7.7-.3.9zM233.6 11.4c.2-.2-.8-1.1-1.1-.8-.2.3.9 1.2 1.1.8zM234 11.9c-.2.3.6.5.6.8 0 .6-1.4.7-1.1 1.2.3.6 1.3-.7 1.7-.8.8-.3.4 0 .7-.7.2-.5.6-.3.4-.7-.1-.2-.2-.1-.4-.1-.5 0-.3.5-.8.5-.6.1-.9-.7-1.1-.2zM254.3 15.4c1.1-.2 1-2.5-.6-2-1.1.4-.7 2.2.6 2zm-.3-1.5c.3-.1.7.2.7.6-.3 1-1.6-.2-.7-.6zM237 13.8c-.3.3 1.8 1.4 2 1.2.3-.3-1.7-1.5-2-1.2zM240.1 15.4c-.2.3.4.5.5.3s-.3-.7-.5-.3zM259.7 16.6c.2-.1.5 0 .6 0 .5-.2-.4-.9-.6-.7-.2.1-.4.9 0 .7zM241.6 15.9c-.2.2.8.7.7.2 0-.2-.6-.3-.7-.2zM254.7 16.3c-.7.1-1.2.5-1.2 1.2.1 1.4 2.6 1 2.3-.6-.1-.3-.5-.7-1.1-.6zm.4 1.5c-.3.3-1.4-.5-.7-.9.6-.4 1.1.6.7.9zM244.9 17c.2-.3-.7-.5-.9-.4-.4.3.8.7.9.4zM247.8 18.3c.7-.5-1.2-.9-1.3-.9-.7.4 1.2.9 1.3.9zM249.4 19.7c.2-.1 0-.2.1-.4.2-.2.3.3.3-.2 0-.3-.4-.5-.7-.4-.3.3-.3 1.2.3 1zM230.8 22.9c1.9-.2 3.4-2.4 4.3-3 .3-.2 0 0 .4-.2 1.5-.7-1.9-.7-2.3-.7-1.8.1-3.1.4-4 1.3-1.1 1.3-.2 2.8 1.6 2.6zM230.5 15.6c.6-.3 1.2-.4 1.8-.9.2-.2.5-.2.4-.5-.2-.4-1.6.6-2 .8-.3.2-2 .6-1.9 1 0 .4 1.6-.4 1.7-.4zM226.2 16.6c-.5.1-1.6.3-1.4.7.2.3 1.3-.1 1.4-.2.5-.1 1.1-.2 1.4-.5.1-.1.3-.1.2-.3-.2-.3-1.2.2-1.6.3zM262.5 23.9c.1-.1-.1-.3-.1-.4 0-.2.5-.1.1-.4-.2-.2-.7-.2-.9 0-.4.2.4 1.3.9.8zM259.1 23.4c.1-.2-.3-.4-.5-.2-.3.2.4.3.5.2zM218.8 18.3c.4 0 3.2-.2 3.5-.2.4-.1.9-.1 1.1-.3.8-.6-.4-.4-.9-.4-1 .2-2.8.3-3.8.3-.6.1-3.2.1-3.5.1-.5.1-.1.4-.1.4.4.2 3.5.1 3.7.1zM240.3 30.2c-.4-.1-.9-.3-1.5-.4-.7-.1-1.4 0-1.7 0-2.1.1-5.4 1.1-5.2 3.1.1.9 1.2 1.3 2.2 1.2 1.8-.2 3.6-2.1 5.4-2.9.7-.3.9-.2 1.5-.6 1-.6-.1-.3-.7-.4z"/>
    <path d="M267.4 43c-.2.1-.3.1-.3.2.1.4.1.7.1 1.2v.8c-.1 1.2-.2 3.5-.2 6.7 0 .7.1.8.2.8h.1c.1 0 .2-.2.2-.3 0-.2-.1-.2-.1-.3v-1.8V48v-.2c.1-1.5.2-2.5.2-2.8v-.4c0-1.4-.1-1.6-.2-1.6zM267.4 56.1c-.2.1-.3.1-.3.2.1.4.1.7.1 1.2v.8c-.1 1.2-.2 3.5-.2 6.7 0 .7.1.8.2.8h.1c.1 0 .2-.2.2-.3 0-.2-.1-.2-.1-.3v-1.8-2.3-.2c.1-1.5.2-2.5.2-2.8v-.4c0-1.5-.1-1.6-.2-1.6zM267.4 69.9c-.2.1-.3.1-.3.2.1.3.1.7.1 1.2v.8c-.1 1.2-.2 3.5-.2 6.7 0 .7.1.8.2.8h.1c.1 0 .2-.2.2-.3 0-.2-.1-.2-.1-.3v-1.8-2.3-.2c.1-1.5.2-2.5.2-2.8v-.4c0-1.5-.1-1.6-.2-1.6zM.3 72.8c-.2.1-.3.1-.3.2.1.3.1.7.1 1.2v.8c0 1.2-.1 3.4-.1 6.6 0 .7.1.8.2.8h.1c.1 0 .2-.2.2-.3 0-.2-.1-.2-.1-.3V80v-2.3-.2c.1-1.5.2-2.5.2-2.8v-.4c0-1.4-.1-1.5-.3-1.5zM.3 59c-.2.1-.3.1-.3.2.1.4.1.7.1 1.2v.8c0 1.1-.1 3.4-.1 6.6 0 .7.1.8.2.8h.1c.1 0 .2-.2.2-.3 0-.2-.1-.2-.1-.3v-1.8-2.3-.2c.1-1.5.2-2.5.2-2.8v-.4C.6 59.1.5 59 .3 59zM.3 45.9c-.1.1-.2.1-.2.2.1.4.1.7.1 1.2v.8c-.1 1.2-.2 3.4-.2 6.6 0 .7.1.8.2.8h.1c.1 0 .2-.2.2-.3 0-.2-.1-.2-.1-.3v-1.8-2.3-.2c.1-1.5.2-2.5.2-2.8v-.4c0-1.4-.1-1.5-.3-1.5zM.3 32.6c-.2.1-.3.1-.3.2.1.3.1.7.1 1.2v.8c0 1.1-.1 3.4-.1 6.6 0 .7.1.8.2.8h.1c.1 0 .2-.2.2-.3 0-.2-.1-.2-.1-.3v-1.8-2.3-.2c.1-1.5.2-2.5.2-2.8v-.4c0-1.4-.1-1.5-.3-1.5zM.3 19.9c-.1.1-.2.1-.2.2.1.3.1.7.1 1.2v.8c-.1 1.2-.2 3.4-.2 6.6 0 .7.1.8.2.8h.1c.1 0 .2-.2.2-.3 0-.2-.1-.2-.1-.3v-1.8-2.3-.2c.1-1.5.2-2.5.2-2.8v-.4c0-1.4-.1-1.5-.3-1.5zM11.3 84.3c-.3.1-.7.1-1.2.1h-.8c-1.2-.1-3.4-.2-6.6-.2-.7 0-.8.1-.8.2v.1c0 .1.2.2.3.2.2 0 .2-.1.3-.1h4.3c1.5.1 2.5.2 2.8.2h.4c1.4 0 1.6-.1 1.6-.3v-.1c-.2 0-.3-.1-.3-.1zM25 84.3c-.4.1-.7.1-1.2.1H23c-1.2-.1-3.4-.2-6.6-.2-.7 0-.8.1-.8.2v.1c0 .1.2.2.3.2.2 0 .2-.1.3-.1h4.3c1.5.1 2.5.2 2.8.2h.4c1.4 0 1.6-.1 1.6-.3v-.1c-.1 0-.2-.1-.3-.1zM38 84.3c-.4.1-.7.1-1.2.1H36c-1.2-.1-3.4-.2-6.6-.2-.7 0-.8.1-.8.2v.1c0 .1.2.2.3.2.2 0 .2-.1.3-.1h4.3c1.5.1 2.5.2 2.8.2h.4c1.4 0 1.6-.1 1.6-.3v-.1c-.2 0-.2-.1-.3-.1zM51.3 84.3c-.3.1-.7.1-1.2.1h-.8c-1.2-.1-3.4-.2-6.6-.2-.7 0-.8.1-.8.2v.1c0 .1.2.2.3.2.2 0 .2-.1.3-.1h4.3c1.5.1 2.5.2 2.8.2h.4c1.4 0 1.6-.1 1.6-.3v-.1c-.2 0-.2-.1-.3-.1zM63.9 84.3c-.3.1-.7.1-1.2.1h-.8c-1.2-.1-3.4-.2-6.6-.2-.7 0-.8.1-.8.2v.1c0 .1.2.2.3.2.2 0 .2-.1.3-.1h4.3c1.5.1 2.5.2 2.8.2h.4c1.4 0 1.6-.1 1.6-.3v-.1c-.2 0-.2-.1-.3-.1zM76.7 84.3c-.3.1-.7.1-1.2.1h-.8c-1.2-.1-3.4-.2-6.6-.2-.7 0-.8.1-.8.2v.1c0 .1.2.2.3.2.2 0 .2-.1.3-.1h4.3c1.5.1 2.5.2 2.8.2h.4c1.4 0 1.6-.1 1.6-.3v-.1c-.1 0-.2-.1-.3-.1zM91.4 84.3c-.3.1-.7.1-1.2.1h-.8c-1.2-.1-3.4-.2-6.6-.2-.7 0-.8.1-.8.2v.1c0 .1.2.2.3.2.2 0 .2-.1.3-.1h4.3c1.5.1 2.5.2 2.8.2h.4c1.4 0 1.6-.1 1.6-.3v-.1c-.1 0-.2-.1-.3-.1zM104.4 84.3c-.3.1-.7.1-1.2.1h-.8c-1.2-.1-3.4-.2-6.6-.2-.7 0-.8.1-.8.2v.1c0 .1.2.2.3.2.2 0 .2-.1.3-.1h4.3c1.5.1 2.5.2 2.8.2h.4c1.4 0 1.6-.1 1.6-.3v-.1c-.1 0-.2-.1-.3-.1zM117.7 84.3c-.3.1-.7.1-1.2.1h-.8c-1.2-.1-3.4-.2-6.6-.2-.7 0-.8.1-.8.2v.1c0 .1.2.2.3.2.2 0 .2-.1.3-.1h4.3c1.5.1 2.5.2 2.8.2h.4c1.4 0 1.6-.1 1.6-.3v-.1c-.1 0-.2-.1-.3-.1zM131.7 84.3c-.3.1-.7.1-1.2.1h-.8c-1.2-.1-3.4-.2-6.6-.2-.7 0-.8.1-.8.2v.1c0 .1.2.2.3.2.2 0 .2-.1.3-.1h4.3c1.5.1 2.5.2 2.8.2h.4c1.4 0 1.6-.1 1.6-.3v-.1c-.1 0-.2-.1-.3-.1zM145.5 84.3c-.3.1-.7.1-1.2.1h-.8c-1.2-.1-3.4-.2-6.6-.2-.7 0-.8.1-.8.2v.1c0 .1.2.2.3.2.2 0 .2-.1.3-.1h4.3c1.5.1 2.5.2 2.8.2h.4c1.4 0 1.6-.1 1.6-.3v-.1c-.2 0-.2-.1-.3-.1zM171.8 84.3c-.3.1-.7.1-1.2.1h-.8c-1.2-.1-3.4-.2-6.6-.2-.7 0-.8.1-.8.2v.1c0 .1.2.2.3.2.2 0 .2-.1.3-.1h4.3c1.5.1 2.5.2 2.8.2h.4c1.4 0 1.6-.1 1.6-.3v-.1c-.2 0-.3-.1-.3-.1zM184.3 84.3c-.3.1-.7.1-1.2.1h-.8c-1.2-.1-3.4-.2-6.6-.2-.7 0-.8.1-.8.2v.1c0 .1.2.2.3.2.2 0 .2-.1.3-.1h4.3c1.5.1 2.5.2 2.8.2h.4c1.4 0 1.6-.1 1.6-.3v-.1c-.1 0-.2-.1-.3-.1zM158.5 84.3c-.4.1-.7.1-1.2.1h-.8c-1.2-.1-3.4-.2-6.6-.2-.7 0-.8.1-.8.2v.1c0 .1.2.2.3.2.2 0 .2-.1.3-.1h4.3c1.5.1 2.5.2 2.8.2h.4c1.4 0 1.6-.1 1.6-.3v-.1c-.2 0-.2-.1-.3-.1zM196.5 84.3c-.4.1-.7.1-1.2.1h-.8c-1.2-.1-3.4-.2-6.6-.2-.7 0-.8.1-.8.2v.1c0 .1.2.2.3.2.2 0 .2-.1.3-.1h4.3c1.5.1 2.5.2 2.8.2h.4c1.4 0 1.6-.1 1.6-.3v-.1c-.2 0-.2-.1-.3-.1zM210.5 84.3c-.4.1-.7.1-1.2.1h-.8c-1.2-.1-3.4-.2-6.6-.2-.7 0-.8.1-.8.2v.1c0 .1.2.2.3.2.2 0 .2-.1.3-.1h4.3c1.5.1 2.5.2 2.8.2h.4c1.4 0 1.6-.1 1.6-.3v-.1c-.2 0-.2-.1-.3-.1zM225.2 84.3c-.3.1-.7.1-1.2.1h-.8c-1.2-.1-3.4-.2-6.6-.2-.7 0-.8.1-.8.2v.1c0 .1.2.2.3.2.2 0 .2-.1.3-.1h4.3c1.5.1 2.5.2 2.8.2h.4c1.4 0 1.6-.1 1.6-.3v-.1c-.2 0-.2-.1-.3-.1zM238 84.3c-.3.1-.7.1-1.2.1h-.8c-1.2-.1-3.4-.2-6.6-.2-.7 0-.8.1-.8.2v.1c0 .1.2.2.3.2.2 0 .2-.1.3-.1h4.3c1.5.1 2.5.2 2.8.2h.4c1.4 0 1.6-.1 1.6-.3v-.1c-.1 0-.2-.1-.3-.1zM252 84.3c-.3.1-.7.1-1.2.1h-.8c-1.2-.1-3.4-.2-6.6-.2-.7 0-.8.1-.8.2v.1c0 .1.2.2.3.2.2 0 .2-.1.3-.1h4.3c1.5.1 2.5.2 2.8.2h.4c1.4 0 1.6-.1 1.6-.3v-.1c-.1 0-.2-.1-.3-.1zM266.7 84.3c-.3.1-.7.1-1.2.1h-.8c-1.2-.1-3.4-.2-6.6-.2-.7 0-.8.1-.8.2v.1c0 .1.2.2.3.2.2 0 .2-.1.3-.1h4.3c1.5.1 2.5.2 2.8.2h.4c1.4 0 1.6-.1 1.6-.3v-.1c-.1 0-.2-.1-.3-.1zM6 18h.2c1.5.1 2.5.2 2.8.2h.4c1.4 0 1.6-.1 1.6-.3v-.1c0-.1-.1-.2-.2-.2-.3.1-.7.1-1.2.1h-.8c-1.2-.1-3.5-.2-6.7-.2-.7 0-.8.1-.8.2v.1c0 .1.2.2.3.2H6zM17.5 18H20c1.5.1 2.5.2 2.8.2h.4c1.4 0 1.6-.1 1.6-.3v-.1c0-.1-.1-.2-.2-.2-.4.1-.7.1-1.2.1h-.8c-1.2-.1-3.5-.2-6.7-.2-.7 0-.8.1-.8.2v.1c0 .1.2.2.3.2.2 0 .2-.1.3-.1h1.8zM30.5 18H33c1.5.1 2.5.2 2.8.2h.4c1.4 0 1.6-.1 1.6-.3v-.1c0-.1-.1-.2-.2-.2-.4.1-.7.1-1.2.1h-.8c-1.2-.1-3.5-.2-6.7-.2-.7 0-.8.1-.8.2v.1c0 .1.2.2.3.2.2 0 .2-.1.3-.1h1.8zM43.9 18h2.5c1.5.1 2.5.2 2.8.2h.4c1.4 0 1.6-.1 1.6-.3v-.1c0-.1-.1-.2-.2-.2-.3.1-.7.1-1.2.1H49c-1.2-.1-3.5-.2-6.7-.2-.7 0-.8.1-.8.2v.1c0 .1.2.2.3.2.2 0 .2-.1.3-.1h1.8zM56.5 18H59c1.5.1 2.5.2 2.8.2h.4c1.4 0 1.6-.1 1.6-.3v-.1c0-.1-.1-.2-.2-.2-.3.1-.7.1-1.2.1h-.8c-1.2-.1-3.5-.2-6.7-.2-.7 0-.8.1-.8.2v.1c0 .1.2.2.3.2.2 0 .2-.1.3-.1h1.8zM67.4 18.1c.2-.1.3-.1.3-.1H72c1.5.1 2.5.2 2.8.2h.4c1.4 0 1.6-.1 1.6-.3v-.1c0-.1-.1-.2-.2-.2-.3.1-.7.1-1.2.1h-.8c-1.2-.1-3.5-.2-6.7-.2-.7 0-.8.1-.8.2v.1c0 .2.2.3.3.3zM82.1 18.1c.2-.1.3-.1.3-.1h4.3c1.5.1 2.5.2 2.8.2h.5c1.4 0 1.6-.1 1.6-.3v-.1c0-.1-.1-.2-.2-.2-.3.1-.7.1-1.2.1h-.8c-1.2-.1-3.5-.2-6.7-.2-.7 0-.8.1-.8.2v.1c0 .2.2.3.2.3zM95.2 18.1c.2-.1.3-.1.3-.1h4.3c1.5.1 2.5.2 2.8.2h.4c1.4 0 1.6-.1 1.6-.3v-.1c0-.1-.1-.2-.2-.2-.3.1-.7.1-1.2.1h-.8c-1.2-.1-3.5-.2-6.7-.2-.7 0-.8.1-.8.2v.1c0 .2.2.3.3.3zM117.7 17.7c-.4.1-.7.1-1.2.1h-.8c-1.2-.1-3.5-.2-6.7-.2-.7 0-.8.1-.8.2v.1c0 .1.2.2.3.2.2 0 .2-.1.3-.1h4.3c1.5.1 2.5.2 2.8.2h.4c1.4 0 1.6-.1 1.6-.3v-.1c0-.1-.1-.1-.2-.1z" class="st2"/>
  </g>
</svg>